…
    ## Warning: package 'purrr' was built under R version 4.1.2

    ## Warning: package 'forcats' was built under R version 4.1.2

    ## -- Conflicts ------------------------------------------ tidyverse_conflicts() --
    ## x dplyr::filter() masks stats::filter()
    ## x dplyr::lag()    masks stats::lag()

``` r
data("flights")
Vuelos_2hde_retraso<-flights%>%filter(arr_delay>=120)
Vuelos_2hde_retraso
```

    ## # A tibble: 10,200 x 19
    ##     year month   day dep_time sched_dep_time dep_delay arr_time sched_arr_time
    ##    <int> <int> <int>    <int>          <int>     <dbl>    <int>          <int>
    ##  1  2013     1     1      811            630       101     1047            830
    ##  2  2013     1     1      848           1835       853     1001           1950
    ##  3  2013     1     1      957            733       144     1056            853
    ##  4  2013     1     1     1114            900       134     1447           1222
    ##  5  2013     1     1     1505           1310       115     1638           1431
    ##  6  2013     1     1     1525           1340       105     1831           1626
    ##  7  2013     1     1     1549           1445        64     1912           1656
    ##  8  2013     1     1     1558           1359       119     1718           1515
    ##  9  2013     1     1     1732           1630        62     2028           1825
    ## 10  2013     1     1     1803           1620       103     2008           1750
    ## # ... with 10,190 more rows, and 11 more variables: arr_delay <dbl>,
    ## #   carrier <chr>, flight <int>, tailnum <chr>, origin <chr>, dest <chr>,
    ## #   air_time <dbl>, distance <dbl>, hour <dbl>, minute <dbl>, time_hour <dttm>
…
    ## # A tibble: 1 x 1
    ##       n
    ##   <int>
    ## 1 10200

-   Volaron a Houston (IAH o HOU)

``` r
Detino_HOU_y_IAH<-flights%>%filter(dest==c("HOU","IAH"))
Detino_HOU_y_IAH
```

    ## # A tibble: 4,658 x 19
    ##     year month   day dep_time sched_dep_time dep_delay arr_time sched_arr_time
    ##    <int> <int> <int>    <int>          <int>     <dbl>    <int>          <int>
    ##  1  2013     1     1      533            529         4      850            830
    ##  2  2013     1     1      728            732        -4     1041           1038
    ##  3  2013     1     1      739            739         0     1104           1038
    ##  4  2013     1     1      908            908         0     1228           1219
    ##  5  2013     1     1     1044           1045        -1     1352           1351
    ##  6  2013     1     1     1205           1200         5     1503           1505
    ##  7  2013     1     1     1248           1250        -2     1607           1607
    ##  8  2013     1     1     1356           1350         6     1659           1640
    ##  9  2013     1     1     1430           1430         0     1735           1744
    ## 10  2013     1     1     1702           1700         2     2044           2028
    ## # ... with 4,648 more rows, and 11 more variables: arr_delay <dbl>,
    ## #   carrier <chr>, flight <int>, tailnum <chr>, origin <chr>, dest <chr>,
    ## #   air_time <dbl>, distance <dbl>, hour <dbl>, minute <dbl>, time_hour <dttm>

-   Partieron en invierno del hemisferio sur (julio, agosto y
    septiembre)

``` r
Salida_invierno<-flights%>%filter(month<10 & month>6)
Salida_invierno
```

    ## # A tibble: 86,326 x 19
    ##     year month   day dep_time sched_dep_time dep_delay arr_time sched_arr_time
    ##    <int> <int> <int>    <int>          <int>     <dbl>    <int>          <int>
    ##  1  2013     7     1        1           2029       212      236           2359
    ##  2  2013     7     1        2           2359         3      344            344
    ##  3  2013     7     1       29           2245       104      151              1
    ##  4  2013     7     1       43           2130       193      322             14
    ##  5  2013     7     1       44           2150       174      300            100
    ##  6  2013     7     1       46           2051       235      304           2358
    ##  7  2013     7     1       48           2001       287      308           2305
    ##  8  2013     7     1       58           2155       183      335             43
    ##  9  2013     7     1      100           2146       194      327             30
    ## 10  2013     7     1      100           2245       135      337            135
    ## # ... with 86,316 more rows, and 11 more variables: arr_delay <dbl>,
    ## #   carrier <chr>, flight <int>, tailnum <chr>, origin <chr>, dest <chr>,
    ## #   air_time <dbl>, distance <dbl>, hour <dbl>, minute <dbl>, time_hour <dttm>
…
-   Se retrasaron por lo menos una hora, pero repusieron más de 30
    minutos en vuelo

``` r
ret_60_aire_30<-flights %>% filter(dep_delay >= 60 & dep_delay - arr_delay > 30)
ret_60_aire_30
```

    ## # A tibble: 1,844 x 19
    ##     year month   day dep_time sched_dep_time dep_delay arr_time sched_arr_time
    ##    <int> <int> <int>    <int>          <int>     <dbl>    <int>          <int>
    ##  1  2013     1     1     2205           1720       285       46           2040
    ##  2  2013     1     1     2326           2130       116      131             18
    ##  3  2013     1     3     1503           1221       162     1803           1555
    ##  4  2013     1     3     1839           1700        99     2056           1950
    ##  5  2013     1     3     1850           1745        65     2148           2120
    ##  6  2013     1     3     1941           1759       102     2246           2139
    ##  7  2013     1     3     1950           1845        65     2228           2227
    ##  8  2013     1     3     2015           1915        60     2135           2111
    ##  9  2013     1     3     2257           2000       177       45           2224
    ## 10  2013     1     4     1917           1700       137     2135           1950
    ## # ... with 1,834 more rows, and 11 more variables: arr_delay <dbl>,
    ## #   carrier <chr>, flight <int>, tailnum <chr>, origin <chr>, dest <chr>,
    ## #   air_time <dbl>, distance <dbl>, hour <dbl>, minute <dbl>, time_hour <dttm>

-   Partieron entre la medianoche y las 6 a.m. (incluyente)

``` r
vuelo_12pm_6am<-flights%>%filter(hour<=6)
vuelo_12pm_6am
```

    ## # A tibble: 27,905 x 19
    ##     year month   day dep_time sched_dep_time dep_delay arr_time sched_arr_time
    ##    <int> <int> <int>    <int>          <int>     <dbl>    <int>          <int>
    ##  1  2013     1     1      517            515         2      830            819
    ##  2  2013     1     1      533            529         4      850            830
    ##  3  2013     1     1      542            540         2      923            850
    ##  4  2013     1     1      544            545        -1     1004           1022
    ##  5  2013     1     1      554            600        -6      812            837
    ##  6  2013     1     1      554            558        -4      740            728
    ##  7  2013     1     1      555            600        -5      913            854
    ##  8  2013     1     1      557            600        -3      709            723
    ##  9  2013     1     1      557            600        -3      838            846
    ## 10  2013     1     1      558            600        -2      753            745
    ## # ... with 27,895 more rows, and 11 more variables: arr_delay <dbl>,
    ## #   carrier <chr>, flight <int>, tailnum <chr>, origin <chr>, dest <chr>,
    ## #   air_time <dbl>, distance <dbl>, hour <dbl>, minute <dbl>, time_hour <dttm>
…
# ¿Qué hace?

De acuerdo a los limites numericos que escojas de un vector o variable
numerica, te indicara cuales son estos.

# ¿Puedes usarla para simplificar el codigo necesario para responder a los desafíos anteriores?

si. - Partieron entre la medianoche y las 6 a.m. (incluyente)

``` r
vuelo_12pm_6am_2daforma<-flights%>%filter(between(hour,0,6))
vuelo_12pm_6am_2daforma
```

    ## # A tibble: 27,905 x 19
    ##     year month   day dep_time sched_dep_time dep_delay arr_time sched_arr_time
    ##    <int> <int> <int>    <int>          <int>     <dbl>    <int>          <int>
    ##  1  2013     1     1      517            515         2      830            819
    ##  2  2013     1     1      533            529         4      850            830
    ##  3  2013     1     1      542            540         2      923            850
    ##  4  2013     1     1      544            545        -1     1004           1022
    ##  5  2013     1     1      554            600        -6      812            837
    ##  6  2013     1     1      554            558        -4      740            728
    ##  7  2013     1     1      555            600        -5      913            854
    ##  8  2013     1     1      557            600        -3      709            723
    ##  9  2013     1     1      557            600        -3      838            846
    ## 10  2013     1     1      558            600        -2      753            745
    ## # ... with 27,895 more rows, and 11 more variables: arr_delay <dbl>,
    ## #   carrier <chr>, flight <int>, tailnum <chr>, origin <chr>, dest <chr>,
    ## #   air_time <dbl>, distance <dbl>, hour <dbl>, minute <dbl>, time_hour <dttm>

-   Partieron en invierno del hemisferio sur (julio, agosto y
    septiembre)

``` r
Salida_invierno_2daforma<-flights%>%filter(between(month,7,9))
Salida_invierno_2daforma
```

    ## # A tibble: 86,326 x 19
    ##     year month   day dep_time sched_dep_time dep_delay arr_time sched_arr_time
    ##    <int> <int> <int>    <int>          <int>     <dbl>    <int>          <int>
    ##  1  2013     7     1        1           2029       212      236           2359
    ##  2  2013     7     1        2           2359         3      344            344
    ##  3  2013     7     1       29           2245       104      151              1
    ##  4  2013     7     1       43           2130       193      322             14
    ##  5  2013     7     1       44           2150       174      300            100
    ##  6  2013     7     1       46           2051       235      304           2358
    ##  7  2013     7     1       48           2001       287      308           2305
    ##  8  2013     7     1       58           2155       183      335             43
    ##  9  2013     7     1      100           2146       194      327             30
    ## 10  2013     7     1      100           2245       135      337            135
    ## # ... with 86,316 more rows, and 11 more variables: arr_delay <dbl>,
    ## #   carrier <chr>, flight <int>, tailnum <chr>, origin <chr>, dest <chr>,
    ## #   air_time <dbl>, distance <dbl>, hour <dbl>, minute <dbl>, time_hour <dttm>
…
``` r
arrange(flights,desc(is.na(air_time)))
```

    ## # A tibble: 336,776 x 19
    ##     year month   day dep_time sched_dep_time dep_delay arr_time sched_arr_time
    ##    <int> <int> <int>    <int>          <int>     <dbl>    <int>          <int>
    ##  1  2013     1     1     1525           1530        -5     1934           1805
    ##  2  2013     1     1     1528           1459        29     2002           1647
    ##  3  2013     1     1     1740           1745        -5     2158           2020
    ##  4  2013     1     1     1807           1738        29     2251           2103
    ##  5  2013     1     1     1939           1840        59       29           2151
    ##  6  2013     1     1     1952           1930        22     2358           2207
    ##  7  2013     1     1     2016           1930        46       NA           2220
    ##  8  2013     1     1       NA           1630        NA       NA           1815
    ##  9  2013     1     1       NA           1935        NA       NA           2240
    ## 10  2013     1     1       NA           1500        NA       NA           1825
    ## # ... with 336,766 more rows, and 11 more variables: arr_delay <dbl>,
    ## #   carrier <chr>, flight <int>, tailnum <chr>, origin <chr>, dest <chr>,
    ## #   air_time <dbl>, distance <dbl>, hour <dbl>, minute <dbl>, time_hour <dttm>

## Ordena vuelos para encontrar los vuelos más retrasados. Encuentra los vuelos que salieron más temprano.

``` r
arrange(flights, desc(dep_delay))
```

    ## # A tibble: 336,776 x 19
    ##     year month   day dep_time sched_dep_time dep_delay arr_time sched_arr_time
    ##    <int> <int> <int>    <int>          <int>     <dbl>    <int>          <int>
    ##  1  2013     1     9      641            900      1301     1242           1530
    ##  2  2013     6    15     1432           1935      1137     1607           2120
    ##  3  2013     1    10     1121           1635      1126     1239           1810
    ##  4  2013     9    20     1139           1845      1014     1457           2210
    ##  5  2013     7    22      845           1600      1005     1044           1815
    ##  6  2013     4    10     1100           1900       960     1342           2211
    ##  7  2013     3    17     2321            810       911      135           1020
    ##  8  2013     6    27      959           1900       899     1236           2226
    ##  9  2013     7    22     2257            759       898      121           1026
    ## 10  2013    12     5      756           1700       896     1058           2020
    ## # ... with 336,766 more rows, and 11 more variables: arr_delay <dbl>,
    ## #   carrier <chr>, flight <int>, tailnum <chr>, origin <chr>, dest <chr>,
    ## #   air_time <dbl>, distance <dbl>, hour <dbl>, minute <dbl>, time_hour <dttm>

## ¿Cuáles vuelos viajaron más lejos? ¿Cuál viajó más cerca?

``` r
arrange(flights, desc(distance))
```

    ## # A tibble: 336,776 x 19
    ##     year month   day dep_time sched_dep_time dep_delay arr_time sched_arr_time
    ##    <int> <int> <int>    <int>          <int>     <dbl>    <int>          <int>
    ##  1  2013     1     1      857            900        -3     1516           1530
    ##  2  2013     1     2      909            900         9     1525           1530
    ##  3  2013     1     3      914            900        14     1504           1530
    ##  4  2013     1     4      900            900         0     1516           1530
    ##  5  2013     1     5      858            900        -2     1519           1530
    ##  6  2013     1     6     1019            900        79     1558           1530
    ##  7  2013     1     7     1042            900       102     1620           1530
    ##  8  2013     1     8      901            900         1     1504           1530
    ##  9  2013     1     9      641            900      1301     1242           1530
    ## 10  2013     1    10      859            900        -1     1449           1530
    ## # ... with 336,766 more rows, and 11 more variables: arr_delay <dbl>,
    ## #   carrier <chr>, flight <int>, tailnum <chr>, origin <chr>, dest <chr>,
    ## #   air_time <dbl>, distance <dbl>, hour <dbl>, minute <dbl>, time_hour <dttm>

## **Parte 3: Dplyr - select**

## Haz una lluvia de ideas sobre tantas maneras como sea posible para seleccionar `dep_time, dep_delay, arr_time, and arr_delay` de flights.

select

``` r
flights %>% select(dep_time, dep_delay, arr_time, arr_delay)
```

    ## # A tibble: 336,776 x 4
    ##    dep_time dep_delay arr_time arr_delay
    ##       <int>     <dbl>    <int>     <dbl>
    ##  1      517         2      830        11
    ##  2      533         4      850        20
    ##  3      542         2      923        33
    ##  4      544        -1     1004       -18
    ##  5      554        -6      812       -25
    ##  6      554        -4      740        12
    ##  7      555        -5      913        19
    ##  8      557        -3      709       -14
    ##  9      557        -3      838        -8
    ## 10      558        -2      753         8
    ## # ... with 336,766 more rows

``` r
select(flights, starts_with("dep"), starts_with("arr"))
```

    ## # A tibble: 336,776 x 4
    ##    dep_time dep_delay arr_time arr_delay
    ##       <int>     <dbl>    <int>     <dbl>
    ##  1      517         2      830        11
    ##  2      533         4      850        20
    ##  3      542         2      923        33
    ##  4      544        -1     1004       -18
    ##  5      554        -6      812       -25
    ##  6      554        -4      740        12
    ##  7      555        -5      913        19
    ##  8      557        -3      709       -14
    ##  9      557        -3      838        -8
    ## 10      558        -2      753         8
    ## # ... with 336,766 more rows

``` r
select(flights, ends_with("delay"), ends_with("time"))
```

    ## # A tibble: 336,776 x 7
    ##    dep_delay arr_delay dep_time sched_dep_time arr_time sched_arr_time air_time
    ##        <dbl>     <dbl>    <int>          <int>    <int>          <int>    <dbl>
    ##  1         2        11      517            515      830            819      227
    ##  2         4        20      533            529      850            830      227
    ##  3         2        33      542            540      923            850      160
    ##  4        -1       -18      544            545     1004           1022      183
    ##  5        -6       -25      554            600      812            837      116
    ##  6        -4        12      554            558      740            728      150
    ##  7        -5        19      555            600      913            854      158
    ##  8        -3       -14      557            600      709            723       53
    ##  9        -3        -8      557            600      838            846      140
    ## 10        -2         8      558            600      753            745      138
    ## # ... with 336,766 more rows

``` r
select(flights, contains("dep"), contains("arr"))
```

    ## # A tibble: 336,776 x 7
    ##    dep_time sched_dep_time dep_delay arr_time sched_arr_time arr_delay carrier
    ##       <int>          <int>     <dbl>    <int>          <int>     <dbl> <chr>  
    ##  1      517            515         2      830            819        11 UA     
    ##  2      533            529         4      850            830        20 UA     
    ##  3      542            540         2      923            850        33 AA     
    ##  4      544            545        -1     1004           1022       -18 B6     
    ##  5      554            600        -6      812            837       -25 DL     
    ##  6      554            558        -4      740            728        12 UA     
    ##  7      555            600        -5      913            854        19 B6     
    ##  8      557            600        -3      709            723       -14 EV     
    ##  9      557            600        -3      838            846        -8 B6     
    ## 10      558            600        -2      753            745         8 AA     
    ## # ... with 336,766 more rows

## ¿Qué sucede si incluyes el nombre de una variable varias veces en una llamada a `select()`?

Nos aparecera una sola columna, la cual será la columna de la variable
deseada, con sus respectivas filas y valores

``` r
flights %>% select(dep_time, dep_time, dep_time)
```

    ## # A tibble: 336,776 x 1
    ##    dep_time
    ##       <int>
    ##  1      517
    ##  2      533
    ##  3      542
    ##  4      544
    ##  5      554
    ##  6      554
    ##  7      555
    ##  8      557
    ##  9      557
    ## 10      558
    ## # ... with 336,766 more rows
…
